…
That reads in nicely.

Let's make some summaries:

``` r
dat %>%
  count(Site, Taxa)
#> Source: local data frame [65 x 3]
#> Groups: Site [?]
#> 
#>      Site                Taxa     n
#>     <chr>               <chr> <int>
#> 1  Breast        Acmaea.mitra    22
#> 2  Breast          allgrazers     1
#> 3  Breast       Boring.limpet     9
#> 4  Breast Calliostoma.ligatum    30
#> 5  Breast              Chiton    41
#> 6  Breast          Fissurella     3
#> 7  Breast      Keyhole.limpet     3
#> 8  Breast    Limpet.long.flat     7
#> 9  Breast  Limpet.round.brown     4
#> 10 Breast    Limpet.varigated     1
#> # ... with 55 more rows
```

How many taxa?

``` r
dat %>%
  count(Taxa) %>%
  arrange(desc(n))
#> # A tibble: 27 × 2
#>                               Taxa     n
#>                              <chr> <int>
#> 1    Strongylocentrotus purpuratus   357
#> 2                     Acmaea.mitra   143
#> 3                       Margarites   114
#> 4                       Tegula sp.    83
#> 5              Calliostoma.ligatum    80
#> 6                           Chiton    72
#> 7                       allgrazers    71
#> 8                   Tegula pulligo    48
#> 9           Pomaulax.gibberosa\xca    47
#> 10 Strongylocentrotus franciscanus    39
#> # ... with 17 more rows
```
…
